{
    "act": "<<indienen betalingsaanvraag>>",
    "actor": "[agrarisch collectief]",
    "action": "[indienen]",
    "object": "[betalingsaanvraag]",
    "recipient": "[RVO]",
    "preconditions": "[betaalverzoek is tussen 1 maart en 15 mei ingediend]",
    "create": [
        "[aanvraag]"
    ],
    "terminate": [
        "[aanvraagformulier betalingsaanvraag]"
    ],
    "sources": [
        {
            "validFrom": "01-01-2020",
            "citation": "art. 72, lid 1 Vo (EU) 1306/2013 en art 3.11, onder g SVNL 2016",
            "juriconnect": "",
            "text": "Een begunstigde van de in artikel 67, lid 2, bedoelde steun dient elk jaar een aanvraag voor rechtstreekse betalingen of een betalingsaanvraag in"
        }
    ],
    "explanation": "Zowel de Europese Vo als de provinciale vo regelt dat je een betaalverzoek/aanvraag moet doen. Om de de Europese Vo het recht creëert, heb ik alleen de sourcetekst van de Europese Vo opgenomen."
}